mbds\tpt\egouvernance\security\jwt\JwtUtils.class
mbds\tpt\egouvernance\services\CitizenService.class
mbds\tpt\egouvernance\models\Citizen.class
mbds\tpt\egouvernance\controllers\DocRequestController.class
mbds\tpt\egouvernance\models\User.class
mbds\tpt\egouvernance\repository\DocRequestRepository.class
mbds\tpt\egouvernance\models\DTO\CitizenDTO.class
mbds\tpt\egouvernance\controllers\DocController.class
mbds\tpt\egouvernance\security\services\UserDetailsServiceImpl.class
mbds\tpt\egouvernance\models\enums\EGenre.class
mbds\tpt\egouvernance\EgouvernanceApplication$1.class
mbds\tpt\egouvernance\services\DocRequestService.class
mbds\tpt\egouvernance\security\jwt\AuthEntryPointJwt.class
mbds\tpt\egouvernance\models\enums\EStatut.class
mbds\tpt\egouvernance\EgouvernanceApplication.class
mbds\tpt\egouvernance\services\DatabaseInitializer.class
mbds\tpt\egouvernance\exception\DocException.class
mbds\tpt\egouvernance\security\jwt\AuthTokenFilter.class
mbds\tpt\egouvernance\controllers\UserController.class
mbds\tpt\egouvernance\services\DocService.class
mbds\tpt\egouvernance\exception\CitizenException.class
mbds\tpt\egouvernance\models\DTO\DocDTO.class
mbds\tpt\egouvernance\models\DocRequest.class
mbds\tpt\egouvernance\repository\DocRepository.class
mbds\tpt\egouvernance\models\Doc.class
mbds\tpt\egouvernance\security\services\UserDetailsImpl.class
mbds\tpt\egouvernance\models\DTO\DocRequestDTO.class
mbds\tpt\egouvernance\payload\response\JwtResponse.class
mbds\tpt\egouvernance\payload\request\DocRequest.class
mbds\tpt\egouvernance\payload\response\MessageResponse.class
mbds\tpt\egouvernance\repository\UserRepository.class
mbds\tpt\egouvernance\payload\request\UserReq.class
mbds\tpt\egouvernance\models\Role.class
mbds\tpt\egouvernance\models\enums\ERole.class
mbds\tpt\egouvernance\models\DTO\UserDTO.class
mbds\tpt\egouvernance\controllers\CitizenController.class
mbds\tpt\egouvernance\payload\request\CitizenReq.class
mbds\tpt\egouvernance\security\WebSecurityConfig.class
mbds\tpt\egouvernance\repository\RoleRepository.class
mbds\tpt\egouvernance\ServletInitializer.class
mbds\tpt\egouvernance\repository\CitizenRepository.class
mbds\tpt\egouvernance\payload\request\LoginReq.class
